{
    "tickers" : [
        {
            "ask" : "0.0000004077",
            "bid" : "0.0000004067",
            "last" : "0.0000004074",
            "low" : "0.0000004001",
            "high" : "0.0000004366",
            "open" : "0.0000004227",
            "volume" : "467499100",
            "volume_quote" : "194.0000000000",
            "timestamp" : 1502366963695
        },
        {
            "ask" : "2499.99",
            "bid" : "1721.37",
            "last" : "2499.99",
            "low" : "2499.99",
            "high" : "2499.99",
            "open" : "2499.17",
            "volume" : "0.03",
            "volume_quote" : "75.00",
            "timestamp" : 1502366963695
        },
        {
            "ask" : "3397.25",
            "bid" : "3388.96",
            "last" : "3392.34",
            "low" : "3232.99",
            "high" : "3424.36",
            "open" : "3314.92",
            "volume" : "1441.43",
            "volume_quote" : "4807383.00",
            "timestamp" : 1502366963695
        },
        {
            "ask" : "0.059409",
            "bid" : "0.059408",
            "last" : "0.059409",
            "low" : "0.058032",
            "high" : "0.060890",
            "open" : "0.059079",
            "volume" : "24487.701",
            "volume_quote" : "1459.470000",
            "timestamp" : 1502366963695
        },
        {
            "ask" : "0.000000563",
            "bid" : "0.000000562",
            "last" : "0.000000563",
            "low" : "0.000000561",
            "high" : "0.000000585",
            "open" : "0.000000577",
            "volume" : "204238000",
            "volume_quote" : "116.000000000",
            "timestamp" : 1502366963695
        }
    ]
}